{
  "apiversion": "V1",
  "context": "twerenbold stage",
  "messageid": "",
  "method": "getbookedservices",
  "data": {
    "arv": {
      "handle": "arv",
      "title": "Allgemeine Reise- und Vertragsbedingungen",
      "content": "<p><span>Für alle Reisen gelten die Allgemeinen Reise- und Vertragsbedingungen (ARV) von Imbach Reisen. </span>\n<a href='https://www.imbach.ch/application/files/2016/0320/3462/ARV_Imbach_Ausgabe_Oktober_2020.pdf' target='_blank' class='url'>https://www.imbach.ch/application/files/2016/0320/3462/ARV_Imbach_Ausgabe_Oktober_2020.pdf</a></p>"
    },
    "gesundheitshinweise": {
      "handle": "gesundheitshinweise",
      "title": "Gesundheitshinweise",
      "content": "<p><span>Für Italien sind keine Impfungen vorgeschrieben. Unsere Reiseleitung ist in Erster Hilfe ausgebildet und verfügt über eine Notfallapotheke. Wir empfehlen Ihnen jedoch eine kleine Reiseapotheke mit persönlichen Medikamenten, Desinfektionsmittel, Mückenschutzmittel (zwingend im Frühling und Herbst) und Sonnenschutzmittel mitzunehmen.</span></p><h5 id='erkrankung-im-europäischen-reiseland'><span>Erkrankung im europäischen Reiseland</span></h5><p><span>Wir empfehlen Ihnen, Ihre Krankenkassenkarte mitzunehmen. Bei einer Erkrankung oder einem Unfall weist diese bei vorübergehendem Aufenthalt in einem EU-Staat nach, dass Anspruch auf medizinische Versorgung besteht. Der Versicherte kann dieselben Leistungen in Anspruch nehmen wie die Landeseinwohner und hat auch den gleich hohen Selbstbehalt bar zu bezahlen. Die restlichen Kosten werden zwischen dem Spital oder dem Arzt und der Krankenkasse abgerechnet.</span></p><h5 id='aktuelle-informationenformulare-corona'><span>Aktuelle Informationen/Formulare Corona</span></h5><p><span>Nachdem wir die aktuelle Lage mit unseren Partnern vor Ort geprüft haben, freuen wir uns sehr, die Wanderreise durchführen zu können. Bitte beachten Sie die folgenden Informationen zur aktuellen Lage:</span></p><p><span>Hygiene-Massnahmen: </span><a href='https://www.imbach.ch/application/files/9716/1363/3644/Hygienemassnahmen_Imbach_Reisen_2021.pdf' target='_blank' class='url'>https://www.imbach.ch/application/files/9716/1363/3644/Hygienemassnahmen_Imbach_Reisen_2021.pdf</a></p><p><span>Bitte füllen Sie das Gesundheitsformular aus: xxx</span></p><p><span>Informationen zur Situation vor Ort:</span>\n<span>-Allgemeine Maskenpflicht im Bus, in geschlossenen Räumen, öffentlichen Verkehrsmitteln</span>\n<span>-Keine Maskenpflicht bei Aktivitäten im Freien</span></p><h5 id='sorgenfrei-unterwegs-mit-imbach'><span>Sorgenfrei unterwegs mit Imbach</span></h5><p><span>Erfahren Sie hier, wie wir handeln und was für Massnahmen wir ergriffen haben, damit Sie sorgenfrei Buchen und Reisen können. </span>\n<a href='https://www.imbach.ch/sorgenfrei' target='_blank' class='url'>https://www.imbach.ch/sorgenfrei</a></p><p>&nbsp;</p>"
    },
    "kontakte": {
      "handle": "kontakte",
      "title": "Kontakte",
      "content": "<p><strong><span>Imbach Reisen AG</span></strong>\n<span>Zürichstrasse 5</span>\n<span>CH-6000 Luzern 6</span>\n<span>0041 41 418 00 00</span>\n<span>info@imbach.ch</span></p><p><strong><span>Notfall-Telefon</span></strong>\n<span>Während den Geschäftszeiten: 0041 41 418 00 00</span>\n<span>Ausserhalb der Geschäftszeiten: 0041 44 283 33 65 (bei Flugreisen), 0041 56 484 84 54 (bei Busreisen)</span></p>"
    },
    "reisefuehrer": {
      "handle": "reisefuehrer",
      "title": "Reiseführer",
      "content": "<p><span>Ihren Reiseführer erhalten Sie direkt bei unserem Partner xxx zu einem Spezialpreis (Rabattcode yyy). Wir empfehlen den JPM-Reiseführer «Toskana».</span></p><p><span> </span></p><p>&nbsp;</p><p>&nbsp;</p><p><span> </span></p><p>&nbsp;</p>"
    },
    "reiseinformationen": {
      "handle": "reiseinformationen",
      "title": "Südtoscana - Reiseinformationen",
      "content": "<p><span>Die mittel-italienische Region Toscana grenzt im Norden an Ligurien und die Emilia-Romagna, im Osten an Umbrien und die Marken und im Süden an Latium. Der Name Toscana leitet sich vom in der Antike ansässigen Volk der Etrusker ab. Hauptstadt und zugleich grösste Stadt der Region ist Florenz. Die typische Landschaft der Toscana ist geprägt von Hügelketten, silbrig schimmernden Olivenbäumen, Weinbergen, mittelalterlichen Städtchen und dunkelgrünen Zypressen. </span></p><p><span>Während unserer Wanderwochen bewegen wir uns im südlichen Teil der Toscana, in der noch wenig bekannten Maremma. Der Küstenstreifen zwischen dem Golf von Follonica bis zur Lagune von Orbetello am Monte Argentario war ursprünglich eine mit dem Tyrrhenischen Meer verbundene Sumpflandschaft. Herzstück der Region ist der Naturpark der Maremma (Parco Regionale della Maremma), wo sich nur Wildtiere und die Rinder des Landwirtschaftsbetriebs Azienda die Alberese frei bewegen dürfen.</span></p><h5 id='klima---reisezeit'><span>Klima - Reisezeit</span></h5><p><span>In der gesamten Toscana herrscht gemässigtes Mittelmeerklima. Im April, Mai und Oktober können wir auf unseren Reisen mit viel Sonne und Durchschnittstemperaturen von ca. 20 Grad C rechnen. Im September kann es noch sommerlich warm und somit ideal zum Baden nach der Wanderung sein. Ihr Ferienwetter im Internet: </span><a href='http://www.wetter.com' target='_blank' class='url'>www.wetter.com</a><span>.</span></p><h5 id='kulinarisches'><span>Kulinarisches</span></h5><p><span>Italien ist berühmt für seine vielfältige, schmackhafte und würzige Küche. Hingegen kennt man in Italien keine grosse Frühstückstradition. Für Italiener ist das Frühstück sehr oft ein Cappuccino oder ein Espresso mit einem Brioche (süsser Gipfel) in verschiedenen Variationen. Somit kann das Frühstück für Schweizer Verhältnisse eher bescheiden ausfallen. Mittag- und Abendessen hingegen fallen sehr grosszügig aus. Charakteristisch für ein italienisches Essen sind in der Regel 2 – 3 Gänge. Die Zubereitung der Speisen ist regional unterschiedlich und wird oft mit «alla siciliana», «alla milanese», «alla romana», usw. bezeichnet.</span></p><p><span>Nicht zu vergessen sind all die guten Weine, die Italien in all seinen Provinzen produziert. Erkundigen Sie sich nach dem Wein der Gegend. Bekannte Weine aus der Toscana sind der Chianti, Montalcino oder Montepulciano.</span></p><p><span>In Italien heissen die Gänge:</span></p><p><span>Antipasto                         für Vorspeisen, z.B. Bruschetta, Insalata Caprese (Tomaten/ Mozzarella), Antipasto misto (gemischte Vorspeise), Prosciutto Melone (Rohschinken mit Melone), insalata ai frutti di mare (Meeresfrüchtesalat), usw.</span>\n<span>Primo piatto                     1. Gang, meistens Teigwaren, Risotto oder Gratin</span>\n<span>Secondo piatto                 2. Gang, Fleisch oder Fisch</span>\n<span>Contorno                          Beilage, z.B. Gemüse, Pommes Frites, Salat</span>\n<span>Dolce / Formaggio            Dessert oder Käse</span></p><h5 id='spezielles-zu-italien'><span>Spezielles zu Italien</span></h5><p><span>Streiks der italienischen Staatsbahnen, der Fluglotsen, der Bus- und Taxifahrer sind in Italien nicht ungewöhnlich. Keiner lässt sich in diesen Momenten aus der Ruhe bringen, es ist zwar chaotisch aber es funktioniert immer irgendwie. Angekündigte Generalstreiks der italienischen Bahnen sind oft nur Teilstreiks und internationale Züge sind oftmals nicht betroffen.</span></p><h5 id='anreise'><span>Anreise</span></h5><p><span>Bitte beachten Sie, dass in der Regel ein Zubringerbus von Twerenbold Reisen bis Baden-Rütihof eingesetzt wird und Sie erst dort in den Bus, mit dem Sie Ihre Ferienreise machen, einsteigen können. Das Umgekehrte gilt für die Rückreise.</span></p><p><span>Unterwegs machen wir je morgens und nachmittags einen Kaffeehalt von ca. 30 Min. Fakultatives Mittagessen bei einer Autobahnraststätte.</span></p><h5 id='abfahrtsorte-und-einfindungszeiten'><span>Abfahrtsorte und Einfindungszeiten </span></h5><p><span>Zeit             Ort                                   Beschreibung</span></p><p><span>05.10 h        Wil SG P1                         Reisebusterminal Ostschweiz, c/o Wick-Reisen</span></p><p><span>05.30 h        Burgdorf P2                      Reiseterminal Burgdorf, c/o Garage Gautschi, Lyssach</span></p><p><span>05.35 h        Winterthur                         S-Bahnhof Wiesendangen (S8, S30)</span></p><p><span>05.35 h        Basel                                Bahnhof SBB (Meret Oppenheim Strasse)</span></p><p><span>05:50           Arlesheim,                         Reisebusterminal Basel, Talstrasse 38, 4144 Arlesheim</span>\n<span>\t\t\t\t\t</span><span>c/o Birseck Reisen P3</span></p><p><span>06.00 h        Zürich-Flughafen P4          Reisebusterminal</span></p><p><span>06.00 h        Aarau                                Bahnhof SBB, Feerstrasse</span></p><p><span>07.00 h        Baden-Rütihof P5              Reisebusterminal Baden Twerenbold</span></p><p><span>07.50 h        Arth-Goldau                      Bahnhof SBB</span></p><p><span> </span></p><p><span>P1 in Wil SG, offene Parkplätze, Cafeteria/Warteraum und Toiletten</span>\n<span>Parkplatztarif: 1. Tag (Grundgebühr) Fr. 10.–</span>\n<span>jeder weitere Tag Fr. 3.–</span>\n<span>Mitglieder des Excellence Reiseclubs GRATIS! </span></p><p><span>P2 Pratteln BL, Das Parkhaus liegt geradeaus, beim Hotel Courtyard by Marriott. Gekennzeichnete Tiefgaragenplätze für unsere Kunden befinden sich im 2. und 3. Untergeschoss. Die Aussenparkplätze und das 1. Untergeschoss sind für die Tagesgäste vom Aquabasilea reserviert. Die Bezahlung der reduzierten Parkplatzgebühr von Fr. 15.– pro Tag erfolgt an der Réception des Courtyard Hotels mit dem Parkplatzticket und einem Gutschein. Den Gutschein erhalten Sie auf Anfrage mit Ihren Reiseunterlagen.</span></p><p><span>P3 in Burgdorf BE, offene Parkplätze, Cafeteria/Warteraum und Toiletten</span>\n<span>Parkplatztarif: 1. Tag (Grundgebühr) Fr. 10.–</span>\n<span>jeder weitere Tag Fr. 3.– </span>\n<span>Mitglieder des Excellence Reiseclubs GRATIS! </span></p><p><span>P4 Flughafen Zürich</span>\n<span>Parkplatz online reservieren und bis zu 35% auf den Parkpreisen sparen!</span>\n<span>Die Eingabe des kompletten Links ist notwendig, um von der Vergünstigung zu profitieren. Im Nachhinein können leider keine Rabatte gewährt oder angerechnet werden. </span></p><p><span>Ihr Online-Parkplatz-Buchungslink: </span><a href='https://parking.zurich-airport.com/?a=twerenbold' target='_blank' class='url'>https://parking.zurich-airport.com/?a=twerenbold</a></p><p><span>Alternative: Valet-Parkplatz mit Autobahnhof Sprenger s/Umschlag Reiseprogramm </span></p><p><span>P5 Starten Sie Ihre Wanderreise beim Reiseterminal Baden-Rütihof</span>\n<span>-weil wir für unsere Kunden über 300 Garagen-Parkplätze* bereitgestellt haben</span>\n<span>-weil das Ein- und Aussteigen in der überdachten Terminalzone besonders komfortabel ist und</span>\n<span>-weil wir Ihnen eine komplette Infrastruktur mit grosszügiger Wartehalle, Cafeteria und Toiletten bieten</span></p><ul><li><span>Parkhaustarif:</span></li></ul><p><span>-1. Tag (Grundgebühr) Fr. 15.–</span>\n<span>-jeder weitere Tag Fr. 4.– </span>\n<span>-Mitglieder des Excellence Reiseclubs GRATIS! </span></p><p><span>Bezahlung anhand des Parkhaustickets NACH der Reise am Kassenautomat in der Terminal-Wartehalle, Parterre rechts beim Treppenhaus, das in die Parkgeschosse führt.</span></p><p>&nbsp;</p><h5 id='ihr-reiseziel'><span>Ihr Reiseziel</span></h5><p><img src=\"/Users/taminameier/Documents/Imbach Reisen/img Südtoscana/1140627.jpg\" alt=\"1140627\" style=\"zoom:20%;\" /></p><h5 id='wandern-in-der-südtoscana'><span>Wandern in der Südtoscana                                                                         </span></h5><p><span>Für die Beurteilung der Wanderungen spielt nebst Ihrer persönlichen Leistungsfähigkeit auch das Klima (z.B. Hitze, Luftfeuchtigkeit) eine wichtige Rolle. Etwas Kondition und Praxis helfen, die Wanderungen wirklich geniessen zu können.</span></p><p><span>Die Wanderzeit beträgt durchschnittlich 1½  bis 3 Stunden. Es gibt einige Auf- und Abstiege zu bewältigen. Die benutzten Wege sind zum Teil steinig, jedoch durchwegs gefahrlos begehbar. Es sind nicht mehr als 300 Höhenmeter zu bewältigen. Schöne Badegelegenheiten.</span></p><p><span>Es besteht auch immer die Möglichkeit, auf eine Wanderung zu verzichten und auszuruhen und den Tag nach eigenen Wünschen zu gestalten.</span></p><p><img src=\"/Users/taminameier/Documents/Imbach Reisen/img Südtoscana/2.5-Maenndli.jpg\" referrerpolicy=\"no-referrer\" alt=\"2.5-Maenndli\"></p><p>&nbsp;</p><h5 id='einreisebestimmungen'><span>Einreisebestimmungen</span></h5><p><span>Italien ist ein Schengen-Land, somit entfallen bei der Einreise aus der Schweiz die Grenzkontrollen. Dies entbindet Staatsbürger der EU-Länder sowie BürgerInnen der Schweiz und Liechtenstein jedoch nicht, einen gültigen Reisepass oder eine gültige Identitätskarte dabei zu haben.</span></p><p><span>BürgerInnen anderer Staaten bitten wir, uns ihre Nationalität bekanntzugeben, damit wir Ihnen die entsprechenden Einreisebestimmungen mitteilen können.</span></p><p><span>Aktuelle Informationen/Formulare zur Einreise während Corona. xxx</span></p><h5 id='finanzielles'><span>Finanzielles</span></h5><p><span>Die Landeswährung ist der Euro. Der Umrechnungskurs entspricht ca. 1 EUR = 1.07 CHF (Stand November 2020). Bargeld-Bezüge mit Kreditkarten oder Maestro-Card sind möglich. Die gängigen Kreditkarten werden im Hotel, in grösseren Geschäften und in Restaurants akzeptiert. Wir empfehlen Ihnen, bereits in der Schweiz einen Grundbedarf an Euros zu kaufen. Beachten Sie, dass auf der Reise viele Mahlzeiten bereits inbegriffen sind und sich die Nebenkosten auf Getränke, Zwischenverpflegung und Souvenirs beschränken.</span></p><h5 id='stromspannung'><span>Stromspannung</span></h5><p><span>Die Netzspannung beträgt 220 Volt. Die Steckdosen sind oft nur zweipolig. Die Stecker von Schweizer Rasierapparaten und Föhnen passen in die örtlichen Steckdosen.</span></p><h5 id='trinkgeld'><span>Trinkgeld</span></h5><p><span>Bedienungsgelder im Hotel und bei den inbegriffenen Mahlzeiten in Restaurants, die mit der Rechnung erhoben werden, sind im Reisepreis inbegriffen. Eine speziell freundliche Bedienung, eine gute Leistung des Busfahrers, Zimmermädchens oder der Reiseleitung können mit einem freiwilligen Trinkgeld honoriert werden. </span></p><h5 id='kleidung'><span>Kleidung</span></h5><p><span>Für die Wanderungen kleiden Sie sich am besten sportlich. Wir empfehlen Ihnen einen guten Regenschutz (Regenjacke, Pelerine oder Goretex-Jacke) und einen warmen Pullover mitzunehmen. Für Hotel und Aufenthaltsort empfehlen wir Freizeitbekleidung, am Abend im Hotel sportlich-elegant, aber ohne Krawatte.</span></p><h5 id='ausrüstung'><span>Ausrüstung</span></h5><p><span>Solide Wanderschuhe, kleiner Rucksack, Getränkeflasche, Taschenlampe, Kopfbedeckung und Sonnenschutzmittel, Sonnenbrille, evtl. Wanderstöcke, evtl. Feldstecher und kleiner Regenschirm. </span></p><h5 id='mahlzeiten'><span>Mahlzeiten</span></h5><p><span>Bei Ihrer Reise sind Frühstück und vier Abendessen im Hotel eingeschlossen. Zusätzlich sind zwei Mittagessen in landestypischen Restaurants vorgesehen, was Ihnen Gelegenheit bietet, lokale Spezialitäten kennen zu lernen. </span></p><p><span>Es ist uns bewusst, dass nicht alle Gäste gerne Fisch oder Meeresfrüchte essen und dass vegetarische Mahlzeiten immer beliebter werden. Bitte teilen Sie Ihre Wünsche Ihrer Reiseleitung mit. In den meisten Restaurants gibt es heute diese Angebote.</span></p><h5 id='reisen----nicht-nur-vergnügen'><span>Reisen – nicht nur Vergnügen</span></h5><p><span>Obwohl wir bei der Auswahl der Leistungsträger wie Fluggesellschaften, Hotels, Restaurants und Busunternehmen strenge Massstäbe setzen, gibt dies keine Garantie gegen technische Pannen oder Streiks.</span></p><p><span>In solchen Fällen kann jeder Einzelne viel zum Gelingen einer Reise beitragen! Geniessen wir die Welt wie sie ist und freuen uns an den einzigartigen Naturschönheiten, den gastfreundlichen Menschen und den fremden Kulturen. Beim Reisen erweitern wir durch wertvolle Erlebnisse unseren Horizont, bleiben beweglich, werden toleranter.</span></p><p><span>Das Neue und Fremde eines Landes hat auch seinen Preis, nämlich das Einfühlungsvermögen und Verständnis gegenüber dem bereisten Land und seinen Bewohnern. Wir reisen nicht, um Gleiches oder Ähnliches wie in der Schweiz vorzufinden. Wir suchen das Ungewöhnliche, die Abwechslung und die Herausforderung – sportlich wie kulturell.</span></p><p><span> </span></p><p>&nbsp;</p><p>&nbsp;</p><p><span> </span></p><p>&nbsp;</p>"
    },
    "reiseleitung": {
      "handle": "reiseleitung",
      "title": "Reiseleitung",
      "content": "<p><span>Marcel Käser</span>\n<span>Telefon 078 730 64 11</span></p><p>"
    },
    "reiseversicherung": {
      "handle": "reiseversicherung",
      "title": "Reiseversicherung",
      "content": "<p><span>Bei allen unseren Reisen ist ein Annullationsschutz empfehlenswert, ausser Sie sind bereits im Besitz einer eigenen Annullations- und Extrarückreiseversicherung (zum Beispiel ETI-Schutzbrief, Intertours der AXA Winterthur, etc). Neu sind alle Reisegäste der Twerenbold Reisen Gruppe zudem in der kostenlosen «Corona-Versicherung» eingeschlossen. Versicherungspartner ist die Allianz.</span></p><p><a href='https://www.imbach.ch/application/files/2916/0700/8475/AVB_Kollektive_Reiseversicherung.pdf' target='_blank' class='url'>https://www.imbach.ch/application/files/2916/0700/8475/AVB_Kollektive_Reiseversicherung.pdf</a></p><p><a href='https://www.imbach.ch/application/files/2116/0700/8547/AVB_Jahresversicherung_Einzelperson.pdf' target='_blank' class='url'>https://www.imbach.ch/application/files/2116/0700/8547/AVB_Jahresversicherung_Einzelperson.pdf</a></p><h5 id='corona-versicherung-bei-auslandreisen'><span>Corona-Versicherung (bei Auslandreisen)</span></h5><p><span>Exklusiv und kostenlos für unsere Reisegäste – die Twerenbold Reisen Gruppe bietet als erster Reiseanbieter der Schweiz eine neue kostenlose «Corona-Versicherung» für ihre Kundinnen und Kunden. Versicherungspartner ist die Allianz Travel.</span></p><p><a href='https://www.imbach.ch/application/files/1116/0156/0820/Imbach_Reisen_AVB_Epidemie_Pandemie_Quarantaene_DE_Okt_2020.pdf' target='_blank' class='url'>https://www.imbach.ch/application/files/1116/0156/0820/Imbach_Reisen_AVB_Epidemie_Pandemie_Quarantaene_DE_Okt_2020.pdf</a></p>"
    }
  }
}