{
  "apiversion": "V1",
  "context": "twerenbold stage",
  "messageid": "39bae8d8-8eec-41e3-b24b-28fbb42a0046",
  "method": "gettrip",
  "data": {
    "code": "wamade",
    "titel": "Blumeninsel im Atlantik",
    "name": "Madeira",
    "destination": "Portugal",
    "destination_zusatzzeile": "Imbach Klassisch",
    "flagge": {
      "bild": "flagge",
      "order": "1",
      "filenames": {
        "lg": "https://twrapimedia.blob.core.windows.net/trips/771981_18x18.jpg"
      }
    },
    "schwierigkeitsgrad": "2,5",
    "leadtext": "Bizarre Berge, zerklüftete Küsten, üppig grüne Täler, Bananenfelder und blühende Gärten bezaubern den Wanderer auf der «Insel des ewigen Frühlings». Madeiras Wanderwege führen oft entlang der typischen Wasserkanäle – auch Levadas genannt – und eine artenreiche Pflanzenwelt erwartet den Botaniker und Blumenfreund.<br /><br /><em>Hinweis: Bei den World Travel Awards 2020 wurde Madeira ein weiteres Jahr in Folge als «Bestes Inselreiseziel der Welt» ausgezeichnet. </em>",
    "primaereusps": [
      "Levada-Wanderungen",
      "Blumenparadies",
      "Frühlingshaftes Klima",
      "Madeirenser Spezialitäten",
      "Hotel direkt am Atlantik",
      "Zimmer mit Meer-/Hafenblick"
    ],
    "sekundaereusps": [
      "Imbach Klassisch"
    ],
    "preisinformation": {
      "text": "Madeira für Alleinreisende",
      "link": "https://www.imbach.ch/reise/madeira-fuer-alleinreisende-wamadea"
    },
    "bilder": [
      {
        "bild": "hauptbild",
        "order": "1",
        "legende": "Halbinsel São Lourenço",
        "zoom": "mitte",
        "filenames": {
          "hauptbild_detail_lg": "https://twrapimedia.blob.core.windows.net/trips/1001306_1170x390.jpg",
          "hauptbild_detail_md": "https://twrapimedia.blob.core.windows.net/trips/1001306_970x323.jpg",
          "hauptbild_detail_sm": "https://twrapimedia.blob.core.windows.net/trips/1001306_750x250.jpg",
          "hauptbild_detail_xs": "https://twrapimedia.blob.core.windows.net/trips/1001306_780x260.jpg",
          "hauptbild_header_lg": "https://twrapimedia.blob.core.windows.net/trips/1001306_1900x950.jpg",
          "hauptbild_header_md": "https://twrapimedia.blob.core.windows.net/trips/1001306_1200x600.jpg",
          "hauptbild_header_sm": "https://twrapimedia.blob.core.windows.net/trips/1001306_800x400.jpg",
          "hauptbild_kacheln_lg": "https://twrapimedia.blob.core.windows.net/trips/1001306_348x196.jpg",
          "hauptbild_kacheln_mg": "https://twrapimedia.blob.core.windows.net/trips/1001306_281x158.jpg",
          "hauptbild_kacheln_sm": "https://twrapimedia.blob.core.windows.net/trips/1001306_348x196.jpg",
          "hauptbild_kacheln_xs": "https://twrapimedia.blob.core.windows.net/trips/1001306_720x405.jpg",
          "hauptbild_listen_lg": "https://twrapimedia.blob.core.windows.net/trips/1001306_255x143.jpg",
          "hauptbild_listen_md": "https://twrapimedia.blob.core.windows.net/trips/1001306_205x115.jpg",
          "hauptbild_listen_sm": "https://twrapimedia.blob.core.windows.net/trips/1001306_270x152.jpg",
          "hauptbild_listen_xs": "https://twrapimedia.blob.core.windows.net/trips/1001306_720x405.jpg"
        }
      },
      {
        "bild": "bilder_2_spaltig",
        "order": "2",
        "filenames": {
          "lg_gross": "https://twrapimedia.blob.core.windows.net/trips/1003454_540x355.jpg",
          "lg_klein": "https://twrapimedia.blob.core.windows.net/trips/1003454_350x230.jpg",
          "md_gross": "https://twrapimedia.blob.core.windows.net/trips/1003454_440x289.jpg",
          "md_klein": "https://twrapimedia.blob.core.windows.net/trips/1003454_283x186.jpg",
          "sm_gross": "https://twrapimedia.blob.core.windows.net/trips/1003454_330x217.jpg",
          "sm_klein": "https://twrapimedia.blob.core.windows.net/trips/1003454_210x138.jpg",
          "xs_gross": "https://twrapimedia.blob.core.windows.net/trips/1003454_768x512.jpg",
          "zoomed": "https://twrapimedia.blob.core.windows.net/trips/1003454_1800x1200.jpg"
        }
      },
      {
        "bild": "bilder_1_spaltig",
        "order": "3",
        "filenames": {
          "lg_gross": "https://twrapimedia.blob.core.windows.net/trips/1000715_540x355.jpg",
          "lg_klein": "https://twrapimedia.blob.core.windows.net/trips/1000715_350x230.jpg",
          "md_gross": "https://twrapimedia.blob.core.windows.net/trips/1000715_440x289.jpg",
          "md_klein": "https://twrapimedia.blob.core.windows.net/trips/1000715_283x186.jpg",
          "sm_gross": "https://twrapimedia.blob.core.windows.net/trips/1000715_330x217.jpg",
          "sm_klein": "https://twrapimedia.blob.core.windows.net/trips/1000715_210x138.jpg",
          "xs_gross": "https://twrapimedia.blob.core.windows.net/trips/1000715_768x512.jpg",
          "zoomed": "https://twrapimedia.blob.core.windows.net/trips/1000715_1800x1200.jpg"
        }
      },
      {
        "bild": "bilder_1_spaltig",
        "order": "4",
        "filenames": {
          "lg_gross": "https://twrapimedia.blob.core.windows.net/trips/1000717_540x355.jpg",
          "lg_klein": "https://twrapimedia.blob.core.windows.net/trips/1000717_350x230.jpg",
          "md_gross": "https://twrapimedia.blob.core.windows.net/trips/1000717_440x289.jpg",
          "md_klein": "https://twrapimedia.blob.core.windows.net/trips/1000717_283x186.jpg",
          "sm_gross": "https://twrapimedia.blob.core.windows.net/trips/1000717_330x217.jpg",
          "sm_klein": "https://twrapimedia.blob.core.windows.net/trips/1000717_210x138.jpg",
          "xs_gross": "https://twrapimedia.blob.core.windows.net/trips/1000717_768x512.jpg",
          "zoomed": "https://twrapimedia.blob.core.windows.net/trips/1000717_1800x1200.jpg"
        }
      },
      {
        "bild": "bilder_1_spaltig",
        "order": "5",
        "filenames": {
          "lg_gross": "https://twrapimedia.blob.core.windows.net/trips/1000723_540x355.jpg",
          "lg_klein": "https://twrapimedia.blob.core.windows.net/trips/1000723_350x230.jpg",
          "md_gross": "https://twrapimedia.blob.core.windows.net/trips/1000723_440x289.jpg",
          "md_klein": "https://twrapimedia.blob.core.windows.net/trips/1000723_283x186.jpg",
          "sm_gross": "https://twrapimedia.blob.core.windows.net/trips/1000723_330x217.jpg",
          "sm_klein": "https://twrapimedia.blob.core.windows.net/trips/1000723_210x138.jpg",
          "xs_gross": "https://twrapimedia.blob.core.windows.net/trips/1000723_768x512.jpg",
          "zoomed": "https://twrapimedia.blob.core.windows.net/trips/1000723_1800x1200.jpg"
        }
      },
      {
        "bild": "bilder_1_spaltig",
        "order": "6",
        "filenames": {
          "lg_gross": "https://twrapimedia.blob.core.windows.net/trips/1000730_540x355.jpg",
          "lg_klein": "https://twrapimedia.blob.core.windows.net/trips/1000730_350x230.jpg",
          "md_gross": "https://twrapimedia.blob.core.windows.net/trips/1000730_440x289.jpg",
          "md_klein": "https://twrapimedia.blob.core.windows.net/trips/1000730_283x186.jpg",
          "sm_gross": "https://twrapimedia.blob.core.windows.net/trips/1000730_330x217.jpg",
          "sm_klein": "https://twrapimedia.blob.core.windows.net/trips/1000730_210x138.jpg",
          "xs_gross": "https://twrapimedia.blob.core.windows.net/trips/1000730_768x512.jpg",
          "zoomed": "https://twrapimedia.blob.core.windows.net/trips/1000730_1800x1200.jpg"
        }
      },
      {
        "bild": "bilder_1_spaltig",
        "order": "7",
        "filenames": {
          "lg_gross": "https://twrapimedia.blob.core.windows.net/trips/1000714_540x355.jpg",
          "lg_klein": "https://twrapimedia.blob.core.windows.net/trips/1000714_350x230.jpg",
          "md_gross": "https://twrapimedia.blob.core.windows.net/trips/1000714_440x289.jpg",
          "md_klein": "https://twrapimedia.blob.core.windows.net/trips/1000714_283x186.jpg",
          "sm_gross": "https://twrapimedia.blob.core.windows.net/trips/1000714_330x217.jpg",
          "sm_klein": "https://twrapimedia.blob.core.windows.net/trips/1000714_210x138.jpg",
          "xs_gross": "https://twrapimedia.blob.core.windows.net/trips/1000714_768x512.jpg",
          "zoomed": "https://twrapimedia.blob.core.windows.net/trips/1000714_1800x1200.jpg"
        }
      },
      {
        "bild": "bilder_1_spaltig",
        "order": "8",
        "filenames": {
          "lg_gross": "https://twrapimedia.blob.core.windows.net/trips/772860_540x355.jpg",
          "lg_klein": "https://twrapimedia.blob.core.windows.net/trips/772860_350x230.jpg",
          "md_gross": "https://twrapimedia.blob.core.windows.net/trips/772860_440x289.jpg",
          "md_klein": "https://twrapimedia.blob.core.windows.net/trips/772860_283x186.jpg",
          "sm_gross": "https://twrapimedia.blob.core.windows.net/trips/772860_330x217.jpg",
          "sm_klein": "https://twrapimedia.blob.core.windows.net/trips/772860_210x138.jpg",
          "xs_gross": "https://twrapimedia.blob.core.windows.net/trips/772860_768x512.jpg",
          "zoomed": "https://twrapimedia.blob.core.windows.net/trips/772860_1800x1200.jpg"
        }
      }
    ],
    "videos": [
      {
        "titel": "",
        "url": "https://www.youtube.com/watch?v=4k1q9559t9E&feature=youtu.be"
      }
    ],
    "seo": {
      "title": "Madeira Wanderferien",
      "description": "Wandern auf der Blumeninsel im Atlantik, der Insel des ewigen Frühlings. Unterwegs in grüner Bergwelt, entlang zerklüfteter Küsten und typischer Levadas."
    },
    "leistungskategorien": [
      {
        "title": "Leistungen",
        "leistungen": [
          {
            "text": "Flug inkl. Taxen & Gebühren"
          },
          {
            "text": "Begleitbus für Ausflüge & Transfers"
          },
          {
            "text": "Hotel in Funchal mit Meer- und/oder Hafensicht"
          },
          {
            "text": "Halbpension, zusätzlich 2 typische Mittagessen"
          },
          {
            "text": "Aufgeführte Wanderungen, Ausflüge, Besichtigungen & Eintritte"
          },
          {
            "text": "Trinkgelder in Hotel & Restaurants"
          },
          {
            "text": "Corona-Versicherung"
          },
          {
            "text": "IMBACH Wander- & Reiseleitung"
          }
        ]
      },
      {
        "leistungen": [
          {
            "text": "Informationen zu Anforderungsprofilen, Frühbuchungsrabatt, Versicherungen, Zahlungsmöglichkeiten etc. finden Sie unter:<br />\n<a href=\"https://www.imbach.ch/wissenswertes\" target=\"_blank\">www.imbach.ch/wissenswertes</a>"
          }
        ]
      },
      {
        "leistungen": [
          {
            "preis": "",
            "farbig": "false",
            "text": "DZ zur Alleinbenutzung CHF 370"
          }
        ]
      },
      {
        "leistungen": [
          {
            "preis": "",
            "farbig": "false",
            "text": "Klimaneutral reisen CHF 45"
          }
        ]
      },
      {
        "leistungen": [
          {
            "preis": "",
            "farbig": "false",
            "text": "Annullationskosten- und Assistance-Versicherung CHF 85"
          }
        ]
      },
      {
        "leistungen": [
          {
            "preis": "",
            "farbig": "false",
            "text": "Assistance-Jahresversicherung (Einzelperson) CHF 139"
          }
        ]
      },
      {
        "leistungen": [
          {
            "preis": "",
            "farbig": "false",
            "text": "Assistance-Jahresversicherung (Familie) CHF 229"
          }
        ]
      },
      {
        "leistungen": [
          {
            "preis": "",
            "farbig": "false",
            "text": "Corona-Test (PCR) – Details vgl. unter «Info»"
          }
        ]
      }
    ],
    "extraskategorien": [
      {
        "titel": "Verlängerung",
        "texts": [
          {
            "text": "5*-Hotel Pestana Carlton, Doppelzimmer mit Meer- und/oder Hafensicht inkl. Halbpension und Transfer zum Flughafen (pro Person)<br />\n3 Nächte     CHF 360   <em> (nur an Reiseterminen ab April 2021 möglich)</em><br />\n7 Nächte     CHF 840    <em>(an allen Reiseterminen möglich)</em>"
          }
        ]
      }
    ],
    "reiseprogramm": [
      {
        "programm": [
          {
            "text": "<b>1. Tag: Zürich–Funchal </b><br />\nDirektflug mit EDELWEISS<i>. </i>Besuch eines Orchideengartens und Transfer zum Hotel.<br />\n<b>2. Tag: Entlang von Levadas </b><br />\nLevada-Wanderung durch eine der fruchtbarsten Gegenden der Insel. Rebberge wechseln ab mit terrassenartig angelegten Gemüsegärten. Beeindruckender Ausblick auf die höchste steil abfallende Klippe Europas, dem Cabo Girão (580 m).<br />\nWanderzeit ca. 3 h / 100 m ↑ 50 m ↓<br />\n<b>3. Tag: Einzigartiger Naturpark</b><br />\nFahrt zum Naturpark Ponta de São Lourenço. Die schmale Halbinsel im Osten Madeiras ist landschaftlich einzigartig. Von der Brandung umtoste Felsen und bizarre Lavaformationen begeistern nicht nur Fotografen. Genussvolle Wanderung mit toller Sicht auf den Atlantik. Der Rückweg erfolgt per ca. halbstündiger Bootsfahrt. Typisches Thunfisch-Gericht in kleinem Fischerdorf.<br />\nWanderzeit ca. 2 h / 300 m ↑ 300 m ↓<br />\n<b>4. Tag: Zur freien Verfügung</b><br />\nZeit für einen gemütlichen Tag, z.B. für einen Marktbesuch in Funchal. Strassencafés laden zum Verweilen ein. Abends Besuch eines Fado Lokals und Genuss einheimischer Spezialitäten.<br />\n<b>5. Tag: Vulkanisches Becken</b><br />\nFahrt ins Gebiet Paúl da Serra. Romantische Wanderung durch Baumheidewälder und durch einen ca. 1 km langen Tunnel, der früher von Reitern benutzt wurde. Picknick und Weiterfahrt nach Porto Moniz mit seinem Naturschwimmbecken. Kaffeehalt am rauschenden Meer und Rückfahrt zum Hotel. Wanderzeit ca. 3 h / 300 m ↓<br />\n<b>6. Tag: Urwüchsiger Norden</b><br />\nAufstieg zum Pico Ruivo (1862 m ü.M.), dem höchsten Berg Madeiras. Genuss einheimischer Spezialität und Besichtigung der typischen, strohbedeckten Bauernhäuser in Santana.<br />\nWanderzeit ca. 2½ h / 300 m ↑ 300 m ↓<br />\n<b>7. Tag: Paradiestal </b><br />\nBesichtigung einer der vielen schönen Gartenanlagen der Insel. Nach dem Mittagshalt im Korbmacherort Camacha Wanderung durch das Paradiestal und vergnügte Korbschlittenfahrt in Monte.<br />\nWanderzeit ca. 3 h / 100 m ↑ 300 m ↓<br />\n<b>8. Tag: Funchal–Zürich</b><br />\nTransfer zum Flughafen und Direktflug mit EDELWEISS.<br />\n<br />\n<i>Programmänderungen vorbehalten!</i>"
          }
        ]
      }
    ],
    "signete": [
      {
        "typ": "airline",
        "bilder": [
          {
            "order": "1",
            "filenames": {
              "lg": "https://twrapimedia.blob.core.windows.net/trips/53964_200x.jpg"
            }
          }
        ]
      }
    ],
    "hotel": [
      {
        "titel": "Unterkunft",
        "text": "5*-Hotel Pestana Carlton (off. Kategorie) in kurzer Gehdistanz zum Zentrum von Funchal, mit fantastischem Ausblick auf das Meer. Grosszügige Terrassen, 2 Schwimmbäder und Spa-Bereich. Schöne Zimmer mit Bad oder Dusche/WC, Föhn, Telefon, TV, WLAN, Klimaanlage, Safe, Balkon und Meer- und/oder Hafensicht.",
        "bilder": [
          {
            "bild": "bilder_hotelbeschreibung",
            "order": "1",
            "legende": "Hotel Pestana Carlton",
            "filenames": {
              "lg": "https://twrapimedia.blob.core.windows.net/trips/771494_445x334.jpg",
              "md": "https://twrapimedia.blob.core.windows.net/trips/771494_362x285.jpg",
              "sm": "https://twrapimedia.blob.core.windows.net/trips/771494_330x260.jpg",
              "xs": "https://twrapimedia.blob.core.windows.net/trips/771494_768x576.jpg",
              "zoomed": "https://twrapimedia.blob.core.windows.net/trips/771494_1600x1200.jpg"
            }
          }
        ]
      }
    ],
    "beschreibung": "Die Blumeninsel im Atlantik mit ganzjährigen Frühlingstemperaturen und ihren typischen Wasserkanälen, den Levadas.",
    "buchungslink": "https://www.reisemarkt.twerenbold.ch/HPG_Hotels.aspx?Mand=qi&WebTemplate=twerenbold-noheader&TemplateMandant=qi&standardreise=wamade",
    "durchfuehrungen": [
      {
        "abreisedatum": "2021-05-01",
        "rueckreisedatum": "2021-05-08",
        "preis": 2290.00,
        "garantiert": false,
        "status": "FREE",
        "reiseleiter": [
          {
            "id": 37755,
            "name": "Galambos",
            "vorname": "Ewa"
          }
        ]
      },
      {
        "abreisedatum": "2021-05-08",
        "rueckreisedatum": "2021-05-15",
        "preis": 2190.00,
        "garantiert": false,
        "status": "FREE",
        "reiseleiter": [
          {
            "id": 37755,
            "name": "Galambos",
            "vorname": "Ewa"
          }
        ]
      },
      {
        "abreisedatum": "2021-05-15",
        "rueckreisedatum": "2021-05-22",
        "preis": 2190.00,
        "garantiert": false,
        "status": "FREE",
        "reiseleiter": [
          {
            "id": 68760,
            "name": "Nussbaumer",
            "vorname": "Martha"
          }
        ]
      },
      {
        "abreisedatum": "2021-09-25",
        "rueckreisedatum": "2021-10-02",
        "preis": 2165.00,
        "garantiert": false,
        "status": "FREE",
        "reiseleiter": [
          {
            "id": 77769,
            "name": "Sandner",
            "vorname": "Jutta"
          }
        ]
      },
      {
        "abreisedatum": "2021-10-02",
        "rueckreisedatum": "2021-10-09",
        "preis": 2165.00,
        "garantiert": false,
        "status": "FREE",
        "reiseleiter": [
          {
            "id": 28112,
            "name": "Bütler",
            "vorname": "Yvonne"
          }
        ]
      },
      {
        "abreisedatum": "2021-10-30",
        "rueckreisedatum": "2021-11-06",
        "preis": 2065.00,
        "garantiert": false,
        "status": "FREE",
        "reiseleiter": [
          {
            "id": 95191,
            "name": "Wiedmann",
            "vorname": "Julia"
          }
        ]
      }
    ]
  }
}